…
[139 rows x 24 columns]
```

To get the same information in R using `tidyverse`, you can do the following:

```R
> library('tidyverse')
> languages <- read_csv2('languages.csv')
> languages %>% filter(Type == 'NCSA' & RPrs == '1')
# A tibble: 139 × 24
   Language  Original                                                   Gloss         Translation Type  Remarks Source Citekey Page  Exno  AddSourceInfo Predicate SbjPrs SbjNbr SbjGen SbjCase RPrs  RNbr  RGen  RCase TPrs  TNbr  TGen  TCase
   <chr>     <chr>                                                      <chr>         <chr>       <chr> <chr>   <chr>  <chr>   <chr> <chr> <chr>         <chr>      <dbl> <chr>  <chr>  <chr>   <chr> <chr> <chr> <chr> <chr> <chr> <chr> <chr>
 1 Movima    kɑyɬe:-kɑy--isne is lɑwɑ:jes                               give-INV-f.a… She gave m… NCSA  NA      Haude… Haude2… 404   162   {DM, Fracaso… give           3 SG     NA     NA      1     SG    NA    NA    3     SG    NA    NOM
 2 Squamish  mi-ši-t-c-ka kʷi stáqʷ!                                    come-RDR-TR-… Bring me s… NCSA  NA      Kuipe… Kiyosa… 50    47    NA            bring (i…     NA NA     NA     NA      1     SG    NA    NA    3     SG    NA    NOM
 3 Jingulu   Ngunyɑ-ɑnɑ-mi ngɑmɑniki-rni milɑkurrmi-rni, ngunyɑ-ɑnɑ-mi! give-1O-IRR … Give me th… NCSA  Pensal… Pensa… Pensal… 107   4.46k NA            give (im…     NA NA     NA     NA      1     SG    NA    NA    3     PL    NA    ABS
 4 Rembarnga tiŋʔ - yiʔ ŋinta - Ø  ŋana - pak - larayʔ - miɲ ţeɲ -  Ø   woman - ERG … The women … NCSA  NA      McKay… McKay1… 298   (3.4… NA            cook           3 PL     NA     ERG     1     SG    NA    NOM   3     SG    NA    ABS(…
 5 Ainu      A-en-kore.                                                 2HON-1SG-give You (HON) … NCSA  NA      Shiba… Shibat… 56    94c   NA            give           2 HON    NA     NA      1     SG    NA    NA    3     SG    NA    NA
 6 Ainu      Ku-cis-kor sonno en-erɑmpokinu, beko tope poronno en-kore. 1SG-cry PROG… I was cryi… NCSA  NA      Shiba… Shibat… 86    7     NA            give           3 SG     NA     NA      1     SG    NA    NA    3     SG    NA    NOM
 7 Apurinã   pu-sukɑ-no notɑ                                            2SG-give-1SG… Give away … NCSA  potent… Facun… Facund… 290   20a   NA            give (im…      2 SG     NA     NA      1     SG    NA    NOM   NA    NA    NA    NA
 8 Bagirmi   N-ád-ūm jā mɨ̀-sáà.                                         he-gave-me m… He gave me… NCSA  NA      Keega… Keegan… 17    NA    NA            give           3 SG     NA     NA      1     SG    NA    NA    3     SG    NA    NOM
 9 Bagirmi   ád-ūm jó nén kūyú.                                         give-me to o… Give me an… NCSA  NA      Keega… Keegan… 25    NA    NA            give (im…     NA NA     NA     NA      1     SG    NA    NA    3     SG    NA    NOM
10 Bagirmi   ād-ūm kāɗ-mbī kéɗē.                                        give-me spoo… Give me a … NCSA  NA      Keega… Keegan… 27    NA    NA            give (im…     NA NA     NA     NA      1     SG    NA    NA    3     SG    NA    NOM
# … with 129 more rows
```
…
